<?xml version="1.0" encoding="iso-8859-1"?>
<!-- Generator: Adobe Illustrator 19.0.0, SVG Export Plug-In . SVG Version: 6.00 Build 0)  -->
<svg version="1.1" xmlns="http://www.w3.org/2000/svg" xmlns:xlink="http://www.w3.org/1999/xlink" x="0px" y="0px"
	 viewBox="0 0 45.002 30.002" style="enable-background:new 0 0 45.002 30.002;" xml:space="preserve">
<g id="_x36_00_x5F_400">
	<g>
		<rect x="14.494" y="7.501" style="fill:#FFFFFF;" width="17" height="15"/>
		<path style="fill:#BEBEBE;" d="M30.994,8.001v14h-16v-14H30.994 M31.994,7.001h-18v16h18V7.001L31.994,7.001z"/>
	</g>
</g>
<g id="Layer_1">
</g>
</svg>
