<?xml version="1.0" encoding="iso-8859-1"?>
<!-- Generator: Adobe Illustrator 19.0.0, SVG Export Plug-In . SVG Version: 6.00 Build 0)  -->
<svg version="1.1" xmlns="http://www.w3.org/2000/svg" xmlns:xlink="http://www.w3.org/1999/xlink" x="0px" y="0px"
	 viewBox="0 0 45.002 30.002" style="enable-background:new 0 0 45.002 30.002;" xml:space="preserve">
<g id="_x39_00_x5F_600">
	<g>
		<rect x="12.494" y="5.501" style="fill:#FFFFFF;" width="21" height="19"/>
		<path style="fill:#BEBEBE;" d="M32.994,6.001v18h-20v-18H32.994 M33.994,5.001h-22v20h22V5.001L33.994,5.001z"/>
	</g>
</g>
<g id="Layer_1">
</g>
</svg>
