<?xml version="1.0" encoding="iso-8859-1"?>
<!-- Generator: Adobe Illustrator 19.0.0, SVG Export Plug-In . SVG Version: 6.00 Build 0)  -->
<svg version="1.1" xmlns="http://www.w3.org/2000/svg" xmlns:xlink="http://www.w3.org/1999/xlink" x="0px" y="0px"
	 viewBox="0 0 45.002 30.002" style="enable-background:new 0 0 45.002 30.002;" xml:space="preserve">
<g id="_x31_200_x5F_1800">
	<g>
		<rect x="13.501" y="1.501" style="fill:#FFFFFF;" width="18" height="27"/>
		<path style="fill:#BEBEBE;" d="M31.001,2.001v26h-17v-26H31.001 M32.001,1.001h-19v28h19V1.001L32.001,1.001z"/>
	</g>
</g>
<g id="Layer_1">
</g>
</svg>
