<?xml version="1.0" encoding="iso-8859-1"?>
<!-- Generator: Adobe Illustrator 19.0.0, SVG Export Plug-In . SVG Version: 6.00 Build 0)  -->
<svg version="1.1" xmlns="http://www.w3.org/2000/svg" xmlns:xlink="http://www.w3.org/1999/xlink" x="0px" y="0px"
	 viewBox="0 0 45.002 30.002" style="enable-background:new 0 0 45.002 30.002;" xml:space="preserve">
<g id="_x38_41_x5F_1189">
	<g>
		<rect x="14.501" y="3.501" style="fill:#FFFFFF;" width="16" height="24"/>
		<path style="fill:#BEBEBE;" d="M30.001,4.001v23h-15v-23H30.001 M31.001,3.001h-17v25h17V3.001L31.001,3.001z"/>
	</g>
</g>
<g id="Layer_1">
</g>
</svg>
