<?xml version="1.0" encoding="iso-8859-1"?>
<!-- Generator: Adobe Illustrator 19.0.0, SVG Export Plug-In . SVG Version: 6.00 Build 0)  -->
<svg version="1.1" xmlns="http://www.w3.org/2000/svg" xmlns:xlink="http://www.w3.org/1999/xlink" x="0px" y="0px"
	 viewBox="0 0 45.002 30.002" style="enable-background:new 0 0 45.002 30.002;" xml:space="preserve">
<g id="_x31_50_x5F_150">
	<g>
		<rect x="17.5" y="10.502" style="fill:#FFFFFF;" width="10" height="10"/>
		<path style="fill:#BEBEBE;" d="M27,11.002v9h-9v-9H27 M28,10.002H17v11h11V10.002L28,10.002z"/>
	</g>
</g>
<g id="Layer_1">
</g>
</svg>
