<?xml version="1.0" encoding="iso-8859-1"?>
<!-- Generator: Adobe Illustrator 19.0.0, SVG Export Plug-In . SVG Version: 6.00 Build 0)  -->
<svg version="1.1" xmlns="http://www.w3.org/2000/svg" xmlns:xlink="http://www.w3.org/1999/xlink" x="0px" y="0px"
	 viewBox="0 0 45.002 30.002" style="enable-background:new 0 0 45.002 30.002;" xml:space="preserve">
<g id="_x33_00_x5F_1200">
	<g>
		<rect x="17.502" y="0.5" style="fill:#FFFFFF;" width="9.998" height="29.002"/>
		<path style="fill:#BEBEBE;" d="M27,1v28.002h-8.998V1H27 M28,0H17.002v30.002H28V0L28,0z"/>
	</g>
</g>
<g id="Layer_1">
</g>
</svg>
