<?xml version="1.0" encoding="iso-8859-1"?>
<!-- Generator: Adobe Illustrator 19.0.0, SVG Export Plug-In . SVG Version: 6.00 Build 0)  -->
<svg version="1.1" xmlns="http://www.w3.org/2000/svg" xmlns:xlink="http://www.w3.org/1999/xlink" x="0px" y="0px"
	 viewBox="0 0 45.002 30.002" style="enable-background:new 0 0 45.002 30.002;" xml:space="preserve">
<g id="_x34_00_x5F_300">
	<g>
		<rect x="11.5" y="7.502" style="fill:#FFFFFF;" width="22" height="15"/>
		<path style="fill:#BEBEBE;" d="M33,8.002v14H12v-14H33 M34,7.002H11v16h23V7.002L34,7.002z"/>
	</g>
</g>
<g id="Layer_1">
</g>
</svg>
