<?xml version="1.0" encoding="iso-8859-1"?>
<!-- Generator: Adobe Illustrator 19.0.0, SVG Export Plug-In . SVG Version: 6.00 Build 0)  -->
<svg version="1.1" xmlns="http://www.w3.org/2000/svg" xmlns:xlink="http://www.w3.org/1999/xlink" x="0px" y="0px"
	 viewBox="0 0 45.002 30.002" style="enable-background:new 0 0 45.002 30.002;" xml:space="preserve">
<g id="_x36_50_x5F_150">
	<g>
		<rect x="8.001" y="10.507" style="fill:#FFFFFF;" width="29" height="7"/>
		<path style="fill:#BEBEBE;" d="M36.501,11.007v6h-28v-6H36.501 M37.501,10.007h-30v8h30V10.007L37.501,10.007z"/>
	</g>
</g>
<g id="Layer_1">
</g>
</svg>
