<?xml version="1.0" encoding="iso-8859-1"?>
<!-- Generator: Adobe Illustrator 19.0.0, SVG Export Plug-In . SVG Version: 6.00 Build 0)  -->
<svg version="1.1" xmlns="http://www.w3.org/2000/svg" xmlns:xlink="http://www.w3.org/1999/xlink" x="0px" y="0px"
	 viewBox="0 0 45.002 30.002" style="enable-background:new 0 0 45.002 30.002;" xml:space="preserve">
<g id="s_x5F_4000_x5F_3000">
	<g>
		<rect x="3.476" y="0.501" style="fill:#FFFFFF;" width="39" height="29"/>
		<path style="fill:#BEBEBE;" d="M41.975,1.001v28h-38v-28H41.975 M42.975,0.001h-40v30h40V0.001L42.975,0.001z"/>
	</g>
</g>
<g id="Layer_1">
</g>
</svg>
