<?xml version="1.0" encoding="iso-8859-1"?>
<!-- Generator: Adobe Illustrator 19.0.0, SVG Export Plug-In . SVG Version: 6.00 Build 0)  -->
<svg version="1.1" xmlns="http://www.w3.org/2000/svg" xmlns:xlink="http://www.w3.org/1999/xlink" x="0px" y="0px"
	 viewBox="0 0 45.002 30.002" style="enable-background:new 0 0 45.002 30.002;" xml:space="preserve">
<g id="_x38_00_x5F_2000">
	<g>
		<rect x="20.5" y="8.502" style="fill:#FFFFFF;" width="5" height="13"/>
		<path style="fill:#BEBEBE;" d="M25,9.002v12h-4v-12H25 M26,8.002h-6v14h6V8.002L26,8.002z"/>
	</g>
</g>
<g id="Layer_1">
</g>
</svg>
